---- Minecraft Crash Report ----

WARNING: coremods are present:
  RandomPatches (randompatches-1.12.2-1.18.1.1.jar)
  SplashAnimationCoremod (SplashAnimation-0.2.1.jar)
  BedPatch (bedpatch-2.2-1.12.2.jar)
  Do not report to Forge! (If you haven't disabled the FoamFix coremod, try disabling it in the config! Note that this bit of text will still appear.) (foamfix-0.10.5-1.12.2.jar)
  Quark Plugin (Quark-r1.6-177.jar)
  OpenModsCorePlugin (OpenModsLib-1.12.2-0.12.2.jar)
  AstralCore (astralsorcery-1.12.2-1.10.20.jar)
  CTMCorePlugin (CTM-MC1.12.2-0.3.3.22.jar)
  p455w0rdc0re (p455w0rdslib-1.12.2-2.2.156.jar)
  ForgelinPlugin (Forgelin-1.8.3.jar)
  Plugin (NotEnoughIDs-1.5.4.4.jar)
  Inventory Tweaks Coremod (InventoryTweaks-1.63.jar)
  ShetiPhian-ASM (ShetiPhian-ASM-1.12.0.jar)
  PhosphorFMLLoadingPlugin (phosphor-1.12.2-0.2.6+build50-universal.jar)
  LoadingPlugin (ResourceLoader-MC1.12.1-1.5.3.jar)
  IELoadingPlugin (ImmersiveEngineering-core-0.12-91.jar)
  CoreMod (Aroma1997Core-1.12.2-2.0.0.2.jar)
  EnderCorePlugin (EnderCore-1.12.2-0.5.68-core.jar)
Contact their authors BEFORE contacting forge

// Hi. I'm Minecraft, and I'm a crashaholic.

Time: 3/25/20 10:50 PM
Description: Exception in server tick loop

java.lang.NullPointerException: Player can't be found for debotten:0e1d39eeea1f31698feb707b97686090:net.minecraft.entity.player.EntityPlayerMP
	at com.feed_the_beast.ftblib.lib.data.Universe.getPlayer(Universe.java:825)
	at com.feed_the_beast.ftbutilities.handlers.FTBUtilitiesServerEventHandler.onServerTick(FTBUtilitiesServerEventHandler.java:193)
	at net.minecraftforge.fml.common.eventhandler.ASMEventHandler_587_FTBUtilitiesServerEventHandler_onServerTick_ServerTickEvent.invoke(.dynamic)
	at net.minecraftforge.fml.common.eventhandler.ASMEventHandler.invoke(ASMEventHandler.java:90)
	at net.minecraftforge.fml.common.eventhandler.EventBus.post(EventBus.java:182)
	at net.minecraftforge.fml.common.FMLCommonHandler.onPostServerTick(FMLCommonHandler.java:266)
	at net.minecraft.server.MinecraftServer.func_71217_p(MinecraftServer.java:712)
	at net.minecraft.server.MinecraftServer.run(MinecraftServer.java:526)
	at java.lang.Thread.run(Thread.java:748)


A detailed walkthrough of the error, its code path and all known details is as follows:
---------------------------------------------------------------------------------------

-- System Details --
Details:
	Minecraft Version: 1.12.2
	Operating System: Linux (amd64) version 4.15.0
	Java Version: 1.8.0_242, Private Build
	Java VM Version: OpenJDK 64-Bit Server VM (mixed mode), Private Build
	Memory: 523302544 bytes (499 MB) / 2076049408 bytes (1979 MB) up to 4103208960 bytes (3913 MB)
	JVM Flags: 8 total; -Xms2048M -Xmx4048M -XX:+UseParNewGC -XX:+CMSIncrementalPacing -XX:+CMSClassUnloadingEnabled -XX:ParallelGCThreads=5 -XX:MinHeapFreeRatio=5 -XX:MaxHeapFreeRatio=10
	IntCache: cache: 0, tcache: 0, allocated: 15, tallocated: 95
	FML: MCP 9.42 Powered by Forge 14.23.5.2846 217 mods loaded, 217 mods active
	States: 'U' = Unloaded 'L' = Loaded 'C' = Constructed 'H' = Pre-initialized 'I' = Initialized 'J' = Post-initialized 'A' = Available 'D' = Disabled 'E' = Errored

	| State  | ID                                | Version                  | Source                                              | Signature                                |
	|:------ |:--------------------------------- |:------------------------ |:--------------------------------------------------- |:---------------------------------------- |
	| LCHIJA | minecraft                         | 1.12.2                   | minecraft.jar                                       | None                                     |
	| LCHIJA | mcp                               | 9.42                     | minecraft.jar                                       | None                                     |
	| LCHIJA | FML                               | 8.0.99.99                | FTBserver-1.12.2-14.23.5.2846-universal.jar         | None                                     |
	| LCHIJA | forge                             | 14.23.5.2846             | FTBserver-1.12.2-14.23.5.2846-universal.jar         | None                                     |
	| LCHIJA | openmodscore                      | 0.12.2                   | minecraft.jar                                       | None                                     |
	| LCHIJA | foamfixcore                       | 7.7.4                    | minecraft.jar                                       | None                                     |
	| LCHIJA | randompatches                     | 1.12.2-1.18.1.1          | randompatches-1.12.2-1.18.1.1.jar                   | None                                     |
	| LCHIJA | fastbench                         | 1.7.2                    | FastWorkbench-1.12.2-1.7.2.jar                      | None                                     |
	| LCHIJA | actuallyadditions                 | 1.12.2-r150              | ActuallyAdditions-1.12.2-r150.jar                   | None                                     |
	| LCHIJA | baubles                           | 1.5.2                    | Baubles-1.12-1.5.2.jar                              | None                                     |
	| LCHIJA | actuallybaubles                   | 1.1                      | ActuallyBaubles-1.12-1.1.jar                        | None                                     |
	| LCHIJA | ic2                               | 2.8.187-ex112            | industrialcraft-2-2.8.187-ex112.jar                 | de041f9f6187debbc77034a344134053277aa3b0 |
	| LCHIJA | advanced_machines                 | 61.0.1                   | Advanced Machines-61.0.1.jar                        | None                                     |
	| LCHIJA | advanced_solar_panels             | 4.3.0                    | Advanced Solar Panels-4.3.0.jar                     | None                                     |
	| LCHIJA | appliedenergistics2               | rv6-stable-7             | appliedenergistics2-rv6-stable-7.jar                | dfa4d3ac143316c6f32aa1a1beda1e34d42132e5 |
	| LCHIJA | endercore                         | 1.12.2-0.5.68            | EnderCore-1.12.2-0.5.68.jar                         | None                                     |
	| LCHIJA | crafttweaker                      | 4.1.19                   | CraftTweaker2-1.12-4.1.19.jar                       | None                                     |
	| LCHIJA | mtlib                             | 3.0.6                    | MTLib-3.0.6.jar                                     | None                                     |
	| LCHIJA | modtweaker                        | 4.0.17                   | modtweaker-4.0.17.jar                               | None                                     |
	| LCHIJA | jei                               | 4.15.0.268               | jei_1.12.2-4.15.0.268.jar                           | None                                     |
	| LCHIJA | thaumcraft                        | 6.1.BETA26               | Thaumcraft-1.12.2-6.1.BETA26.jar                    | None                                     |
	| LCHIJA | codechickenlib                    | 3.2.3.357                | CodeChickenLib-1.12.2-3.2.3.357-universal.jar       | f1850c39b2516232a2108a7bd84d1cb5df93b261 |
	| LCHIJA | redstoneflux                      | 2.1.0                    | RedstoneFlux-1.12-2.1.0.6-universal.jar             | 8a6abf2cb9e141b866580d369ba6548732eff25f |
	| LCHIJA | cofhcore                          | 4.6.3                    | CoFHCore-1.12.2-4.6.3.27-universal.jar              | None                                     |
	| LCHIJA | brandonscore                      | 2.4.17                   | BrandonsCore-1.12.2-2.4.17.208-universal.jar        | None                                     |
	| LCHIJA | cofhworld                         | 1.3.1                    | CoFHWorld-1.12.2-1.3.1.7-universal.jar              | 8a6abf2cb9e141b866580d369ba6548732eff25f |
	| LCHIJA | thermalfoundation                 | 2.6.3                    | ThermalFoundation-1.12.2-2.6.3.27-universal.jar     | 8a6abf2cb9e141b866580d369ba6548732eff25f |
	| LCHIJA | draconicevolution                 | 2.3.24                   | Draconic-Evolution-1.12.2-2.3.24.349-universal.jar  | None                                     |
	| LCHIJA | thermalexpansion                  | 5.5.4                    | ThermalExpansion-1.12.2-5.5.4.43-universal.jar      | 8a6abf2cb9e141b866580d369ba6548732eff25f |
	| LCHIJA | enderio                           | 5.1.51                   | EnderIO-1.12.2-5.1.51.jar                           | None                                     |
	| LCHIJA | mantle                            | 1.12-1.3.3.55            | Mantle-1.12-1.3.3.55.jar                            | None                                     |
	| LCHIJA | chisel                            | MC1.12.2-0.2.1.35        | Chisel-MC1.12.2-0.2.1.35.jar                        | None                                     |
	| LCHIJA | enderiointegrationtic             | 5.1.51                   | EnderIO-1.12.2-5.1.51.jar                           | None                                     |
	| LCHIJA | twilightforest                    | 3.9.984                  | twilightforest-1.12.2-3.9.984-universal.jar         | None                                     |
	| LCHIJA | tconstruct                        | 1.12.2-2.12.0.157        | TConstruct-1.12.2-2.12.0.157.jar                    | None                                     |
	| LCHIJA | p455w0rdslib                      | 2.2.156                  | p455w0rdslib-1.12.2-2.2.156.jar                     | 186bc454cd122c9c2f1aa4f95611254bcc543363 |
	| LCHIJA | ae2wtlib                          | 1.0.30                   | AE2WTLib-1.12.2-1.0.30.jar                          | 186bc454cd122c9c2f1aa4f95611254bcc543363 |
	| LCHIJA | akashictome                       | 1.2-12                   | AkashicTome-1.2-12.jar                              | None                                     |
	| LCHIJA | appleskin                         | 1.0.9                    | AppleSkin-mc1.12-1.0.9.jar                          | None                                     |
	| LCHIJA | architecturecraft                 | @VERSION@                | architecturecraft-1.12-3.98.jar                     | None                                     |
	| LCHIJA | aroma1997core                     | 2.0.0.2                  | Aroma1997Core-1.12.2-2.0.0.2.jar                    | dfbfe4c473253d8c5652417689848f650b2cbe32 |
	| LCHIJA | aroma1997sdimension               | 2.0.0.2.b89              | Aroma1997s-Dimensional-World-1.12.2-2.0.0.2.b89.jar | dfbfe4c473253d8c5652417689848f650b2cbe32 |
	| LCHIJA | astralsorcery                     | 1.10.20                  | astralsorcery-1.12.2-1.10.20.jar                    | a0f0b759d895c15ceb3e3bcb5f3c2db7c582edf0 |
	| LCHIJA | morphtool                         | 1.2-21                   | Morph-o-Tool-1.2-21.jar                             | None                                     |
	| LCHIJA | quark                             | r1.6-177                 | Quark-r1.6-177.jar                                  | None                                     |
	| LCHIJA | autoreglib                        | 1.3-32                   | AutoRegLib-1.3-32.jar                               | None                                     |
	| LCHIJA | badwithernocookiereloaded         | 1.12.2-3.3.16            | badwithernocookiereloaded-1.12.2-3.3.16.jar         | None                                     |
	| LCHIJA | base                              | 3.13.0                   | base-1.12.2-3.13.0.jar                              | None                                     |
	| LCHIJA | bdlib                             | 1.14.3.12                | bdlib-1.14.3.12-mc1.12.2.jar                        | None                                     |
	| LCHIJA | bedpatch                          | 2.2                      | bedpatch-2.2-1.12.2.jar                             | 6bf7527e690fb5e8719b9832bce5000a3e87dfe6 |
	| LCHIJA | betterbuilderswands               | 0.11.1                   | BetterBuildersWands-1.12-0.11.1.245+69d0d70.jar     | None                                     |
	| LCHIJA | bibliocraft                       | 2.4.5                    | BiblioCraft[v2.4.5][MC1.12.2].jar                   | None                                     |
	| LCHIJA | buildcraftlib                     | 7.99.24.2                | buildcraft-all-7.99.24.2.jar                        | None                                     |
	| LCHIJA | buildcraftcore                    | 7.99.24.2                | buildcraft-all-7.99.24.2.jar                        | None                                     |
	| LCHIJA | buildcraftenergy                  | 7.99.24.2                | buildcraft-all-7.99.24.2.jar                        | None                                     |
	| LCHIJA | natura                            | 1.12.2-4.3.2.69          | natura-1.12.2-4.3.2.69.jar                          | None                                     |
	| LCHIJA | forestry                          | 5.8.2.394                | forestry_1.12.2-5.8.2.394.jar                       | None                                     |
	| LCHIJA | binniecore                        | 2.5.1.188                | binnie-mods-1.12.2-2.5.1.188.jar                    | None                                     |
	| LCHIJA | binniedesign                      | 2.5.1.188                | binnie-mods-1.12.2-2.5.1.188.jar                    | None                                     |
	| LCHIJA | genetics                          | 2.5.1.188                | binnie-mods-1.12.2-2.5.1.188.jar                    | None                                     |
	| LCHIJA | botany                            | 2.5.1.188                | binnie-mods-1.12.2-2.5.1.188.jar                    | None                                     |
	| LCHIJA | extrabees                         | 2.5.1.188                | binnie-mods-1.12.2-2.5.1.188.jar                    | None                                     |
	| LCHIJA | extratrees                        | 2.5.1.188                | binnie-mods-1.12.2-2.5.1.188.jar                    | None                                     |
	| LCHIJA | biomesoplenty                     | 7.0.1.2441               | BiomesOPlenty-1.12.2-7.0.1.2441-universal.jar       | None                                     |
	| LCHIJA | blockcraftery                     | 1.12.2-1.3.1             | blockcraftery-1.12.2-1.3.1.jar                      | None                                     |
	| LCHIJA | guideapi                          | 1.12-2.1.8-63            | Guide-API-1.12-2.1.8-63.jar                         | None                                     |
	| LCHIJA | bloodmagic                        | 1.12.2-2.4.1-103         | BloodMagic-1.12.2-2.4.1-103.jar                     | None                                     |
	| LCHIJA | bookshelf                         | 2.3.585                  | Bookshelf-1.12.2-2.3.585.jar                        | d476d1b22b218a10d845928d1665d45fce301b27 |
	| LCHIJA | botania                           | r1.10-361                | Botania r1.10-361.jar                               | None                                     |
	| LCHIJA | buildcraftbuilders                | 7.99.24.2                | buildcraft-all-7.99.24.2.jar                        | None                                     |
	| LCHIJA | buildcrafttransport               | 7.99.24.2                | buildcraft-all-7.99.24.2.jar                        | None                                     |
	| LCHIJA | buildcraftsilicon                 | 7.99.24.2                | buildcraft-all-7.99.24.2.jar                        | None                                     |
	| LCHIJA | theoneprobe                       | 1.4.28                   | theoneprobe-1.12-1.4.28.jar                         | None                                     |
	| LCHIJA | buildcraftcompat                  | 7.99.24.2                | buildcraft-all-7.99.24.2.jar                        | None                                     |
	| LCHIJA | buildcraftfactory                 | 7.99.24.2                | buildcraft-all-7.99.24.2.jar                        | None                                     |
	| LCHIJA | buildcraftrobotics                | 7.99.24.2                | buildcraft-all-7.99.24.2.jar                        | None                                     |
	| LCHIJA | careerbees                        | 1.0                      | careerbees-0.4.0.jar                                | None                                     |
	| LCHIJA | cctweaked                         | 1.84.0                   | cc-tweaked-1.12.2-1.84.0.jar                        | None                                     |
	| LCHIJA | computercraft                     | 1.84.0                   | cc-tweaked-1.12.2-1.84.0.jar                        | None                                     |
	| LCHIJA | chameleon                         | 1.12-4.1.3               | Chameleon-1.12-4.1.3.jar                            | None                                     |
	| LCHIJA | chesttransporter                  | 2.8.8                    | ChestTransporter-1.12.2-2.8.8.jar                   | None                                     |
	| LCHIJA | chiselsandbits                    | 14.33                    | chiselsandbits-14.33.jar                            | None                                     |
	| LCHIJA | clumps                            | 3.1.2                    | Clumps-3.1.2.jar                                    | None                                     |
	| LCHIJA | compactsolars                     | 1.12.2-5.0.18.341        | CompactSolars-1.12.2-5.0.18.341-universal.jar       | None                                     |
	| LCHIJA | conarm                            | 1.2.4                    | conarm-1.12.2-1.2.4.jar                             | 5d5b8aee896a4f5ea3f3114784742662a67ad32f |
	| LCHIJA | cookingforblockheads              | 6.4.71                   | CookingForBlockheads_1.12.2-6.4.71.jar              | None                                     |
	| LCHIJA | crafttweakerjei                   | 2.0.3                    | CraftTweaker2-1.12-4.1.19.jar                       | None                                     |
	| LCHIJA | danknull                          | 1.6.77                   | DankNull-1.12.2-1.6.77.jar                          | 186bc454cd122c9c2f1aa4f95611254bcc543363 |
	| LCHIJA | darkutils                         | 1.8.226                  | DarkUtils-1.12.2-1.8.226.jar                        | d476d1b22b218a10d845928d1665d45fce301b27 |
	| LCHIJA | eleccore                          | 1.9.452                  | ElecCore-1.12.2-1.9.452.jar                         | None                                     |
	| LCHIJA | mcjtylib_ng                       | 3.5.4                    | mcjtylib-1.12-3.5.4.jar                             | None                                     |
	| LCHIJA | rftools                           | 7.72                     | rftools-1.12-7.72.jar                               | None                                     |
	| LCHIJA | deepresonance                     | 1.8.0                    | deepresonance-1.12-1.8.0.jar                        | None                                     |
	| LCHIJA | diethopper                        | 1.1                      | diethopper-1.1.jar                                  | None                                     |
	| LCHIJA | dirt2path                         | 1.7.1                    | dirt2path-1.8.0.jar                                 | None                                     |
	| LCHIJA | enderiobase                       | 5.1.51                   | EnderIO-1.12.2-5.1.51.jar                           | None                                     |
	| LCHIJA | enderioconduits                   | 5.1.51                   | EnderIO-1.12.2-5.1.51.jar                           | None                                     |
	| LCHIJA | enderioconduitsappliedenergistics | 5.1.51                   | EnderIO-1.12.2-5.1.51.jar                           | None                                     |
	| LCHIJA | enderioconduitsopencomputers      | 5.1.51                   | EnderIO-1.12.2-5.1.51.jar                           | None                                     |
	| LCHIJA | refinedstorage                    | 1.6.15                   | refinedstorage-1.6.15.jar                           | 57893d5b90a7336e8c63fe1c1e1ce472c3d59578 |
	| LCHIJA | enderioconduitsrefinedstorage     | 5.1.51                   | EnderIO-1.12.2-5.1.51.jar                           | None                                     |
	| LCHIJA | enderiointegrationforestry        | 5.1.51                   | EnderIO-1.12.2-5.1.51.jar                           | None                                     |
	| LCHIJA | enderiointegrationticlate         | 5.1.51                   | EnderIO-1.12.2-5.1.51.jar                           | None                                     |
	| LCHIJA | ftblib                            | 5.4.3.133                | FTBLib-5.4.3.133.jar                                | None                                     |
	| LCHIJA | enderiomachines                   | 5.1.51                   | EnderIO-1.12.2-5.1.51.jar                           | None                                     |
	| LCHIJA | enderiopowertools                 | 5.1.51                   | EnderIO-1.12.2-5.1.51.jar                           | None                                     |
	| LCHIJA | enderstorage                      | 2.4.6.137                | EnderStorage-1.12.2-2.4.6.137-universal.jar         | f1850c39b2516232a2108a7bd84d1cb5df93b261 |
	| LCHIJA | railcraft                         | 12.0.0                   | railcraft-12.0.0.jar                                | a0c255ac501b2749537d5824bb0f0588bf0320fa |
	| LCHIJA | immersiveengineering              | 0.12-91                  | ImmersiveEngineering-0.12-91.jar                    | 4cb49fcde3b43048c9889e0a3d083225da926334 |
	| LCHIJA | engineersdoors                    | 0.8.0                    | engineers_doors-1.12.2-0.8.0.jar                    | None                                     |
	| LCHIJA | reborncore                        | 3.16.0.469               | RebornCore-1.12.2-3.16.0.469-universal.jar          | 8727a3141c8ec7f173b87aa78b9b9807867c4e6b |
	| LCHIJA | engineersworkshop                 | 1.0.9.40                 | EngineersWorkshopReborn-1.12.2-1.0.9.40.jar         | 8727a3141c8ec7f173b87aa78b9b9807867c4e6b |
	| LCHIJA | valkyrielib                       | 1.12.2-2.0.20.1          | valkyrielib-1.12.2-2.0.20.1.jar                     | None                                     |
	| LCHIJA | environmentaltech                 | 1.12.2-2.0.20.1          | environmentaltech-1.12.2-2.0.20.1.jar               | None                                     |
	| LCHIJA | etlunar                           | 1.12.2-2.0.20.1          | etlunar-1.12.2-2.0.20.1.jar                         | None                                     |
	| LCHIJA | exchangers                        | 1.12.2-2.8               | Exchangers-1.12.2-2.8.jar                           | 4ffa87db52cf086d00ecc4853a929367b1c39b5c |
	| LCHIJA | extrautils2                       | 1.0                      | extrautils2-1.12-1.9.9.jar                          | None                                     |
	| LCHIJA | zerocore                          | 1.12.2-0.1.2.8           | zerocore-1.12.2-0.1.2.8.jar                         | None                                     |
	| LCHIJA | bigreactors                       | 1.12.2-0.4.5.67          | ExtremeReactors-1.12.2-0.4.5.67.jar                 | None                                     |
	| LCHIJA | fencejumper                       | 1.0.5                    | fencejumper-1.12-1.0.5.jar                          | None                                     |
	| LCHIJA | flatcoloredblocks                 | mc1.12-6.8               | flatcoloredblocks-mc1.12-6.8.jar                    | None                                     |
	| LCHIJA | mcmultipart                       | 2.5.3                    | MCMultiPart-2.5.3.jar                               | None                                     |
	| LCHIJA | sonarcore                         | 5.0.19                   | sonarcore-1.12.2-5.0.19-20.jar                      | None                                     |
	| LCHIJA | fluxnetworks                      | 3.0.19                   | fluxnetworks-1.12.2-3.0.19-21.jar                   | None                                     |
	| LCHIJA | foamfix                           | 0.10.5-1.12.2            | foamfix-0.10.5-1.12.2.jar                           | None                                     |
	| LCHIJA | forgelin                          | 1.8.3                    | Forgelin-1.8.3.jar                                  | None                                     |
	| LCHIJA | forgemultipartcbe                 | 2.6.2.83                 | ForgeMultipart-1.12.2-2.6.2.83-universal.jar        | f1850c39b2516232a2108a7bd84d1cb5df93b261 |
	| LCHIJA | microblockcbe                     | 2.6.2.83                 | ForgeMultipart-1.12.2-2.6.2.83-universal.jar        | None                                     |
	| LCHIJA | minecraftmultipartcbe             | 2.6.2.83                 | ForgeMultipart-1.12.2-2.6.2.83-universal.jar        | None                                     |
	| LCHIJA | ftbguides                         | 1.0.2.33                 | FTBGuides-1.0.2.33.jar                              | None                                     |
	| LCHIJA | ftbutilities                      | 5.4.0.102                | FTBUtilities-5.4.0.102.jar                          | None                                     |
	| LCHIJA | ftbbackups                        | 0.0.0.ftbbackups         | FTBUtilitiesBackups-1.0.0.5.jar                     | None                                     |
	| LCHIJA | gendustry                         | 1.6.5.8                  | gendustry-1.6.5.8-mc1.12.2.jar                      | None                                     |
	| LCHIJA | gravisuite                        | 3.1.1                    | Gravitation Suite-3.1.1.jar                         | None                                     |
	| LCHIJA | harvest                           | 1.12-1.2.7-20            | Harvest-1.12-1.2.7-20.jar                           | None                                     |
	| LCHIJA | immersivecables                   | 1.3.2                    | ImmersiveCables-1.12.2-1.3.2.jar                    | None                                     |
	| LCHIJA | immersivepetroleum                | 1.1.9                    | immersivepetroleum-1.12.2-1.1.9.jar                 | None                                     |
	| LCHIJA | teslacorelib                      | 1.0.15                   | tesla-core-lib-1.12.2-1.0.15.jar                    | d476d1b22b218a10d845928d1665d45fce301b27 |
	| LCHIJA | industrialforegoing               | 1.12.2-1.12.2            | industrialforegoing-1.12.2-1.12.13-237.jar          | None                                     |
	| LCHIJA | initialinventory                  | 2.0.2                    | InitialInventory-3.0.0.jar                          | None                                     |
	| LCHIJA | harvestcraft                      | 1.12.2zb                 | Pam's HarvestCraft 1.12.2zf.jar                     | None                                     |
	| LCHIJA | rustic                            | 1.1.1                    | rustic-1.1.1.jar                                    | None                                     |
	| LCHIJA | integrationforegoing              | 1.12.2-1.9               | IntegrationForegoing-1.12.2-1.9.jar                 | 4ffa87db52cf086d00ecc4853a929367b1c39b5c |
	| LCHIJA | inventorytweaks                   | 1.63+release.109.220f184 | InventoryTweaks-1.63.jar                            | 55d2cd4f5f0961410bf7b91ef6c6bf00a766dcbe |
	| LCHIJA | ironbackpacks                     | 1.12.2-3.0.8-12          | IronBackpacks-1.12.2-3.0.8-12.jar                   | None                                     |
	| LCHIJA | ironchest                         | 1.12.2-7.0.67.844        | ironchest-1.12.2-7.0.72.847.jar                     | None                                     |
	| LCHIJA | jeibees                           | 0.9.0.5                  | jeibees-0.9.0.5-mc1.12.2.jar                        | None                                     |
	| LCHIJA | journeymap                        | 1.12.2-5.5.5             | journeymap-1.12.2-5.5.5.jar                         | None                                     |
	| LCHIJA | letsencryptcraft                  | @VERSION@                | letsencryptcraft-1.10.2-1.2.0.jar                   | None                                     |
	| LCHIJA | longfallboots                     | 1.2.1a                   | longfallboots-1.2.1b.jar                            | None                                     |
	| LCHIJA | lostcities                        | 2.0.21                   | lostcities-1.12-2.0.21.jar                          | None                                     |
	| LCHIJA | magicbees                         | 1.0                      | MagicBees-1.12.2-3.1.10.jar                         | None                                     |
	| LCHIJA | minetogether                      | unspecified              | minetogether-1.10.2-2.2.0-RC6.jar                   | None                                     |
	| LCHIJA | minetogetherserver                | unspecified              | minetogether-1.10.2-2.2.0-RC6.jar                   | None                                     |
	| LCHIJA | morpheus                          | 1.12.2-3.5.106           | Morpheus-1.12.2-3.5.106.jar                         | None                                     |
	| LCHIJA | mrtjpcore                         | 2.1.4.43                 | MrTJPCore-1.12.2-2.1.4.43-universal.jar             | None                                     |
	| LCHIJA | naturescompass                    | 1.5.1                    | NaturesCompass-1.12.2-1.5.1.jar                     | None                                     |
	| LCHIJA | nice                              | 0.4.0                    | nice-1.12-0.4.0.jar                                 | None                                     |
	| LCHIJA | neid                              | 1.5.4.4                  | NotEnoughIDs-1.5.4.4.jar                            | None                                     |
	| LCHIJA | notenoughwands                    | 1.8.1                    | notenoughwands-1.12-1.8.1.jar                       | None                                     |
	| LCHIJA | openmods                          | 0.12.2                   | OpenModsLib-1.12.2-0.12.2.jar                       | d2a9a8e8440196e26a268d1f3ddc01b2e9c572a5 |
	| LCHIJA | openblocks                        | 1.8.1                    | OpenBlocks-1.12.2-1.8.1.jar                         | d2a9a8e8440196e26a268d1f3ddc01b2e9c572a5 |
	| LCHIJA | patchouli                         | 1.0-20                   | Patchouli-1.0-20.jar                                | None                                     |
	| LCHIJA | placebo                           | 1.6.0                    | Placebo-1.12.2-1.6.0.jar                            | None                                     |
	| LCHIJA | shetiphiancore                    | 3.5.9                    | shetiphiancore-1.12.0-3.5.9.jar                     | None                                     |
	| LCHIJA | platforms                         | 1.4.6                    | platforms-1.12.0-1.4.6.jar                          | None                                     |
	| LCHIJA | projectred-core                   | 4.9.4.120                | ProjectRed-1.12.2-4.9.4.120-Base.jar                | None                                     |
	| LCHIJA | projectred-compat                 | 1.0                      | ProjectRed-1.12.2-4.9.4.120-compat.jar              | None                                     |
	| LCHIJA | projectred-integration            | 4.9.4.120                | ProjectRed-1.12.2-4.9.4.120-integration.jar         | None                                     |
	| LCHIJA | projectred-transmission           | 4.9.4.120                | ProjectRed-1.12.2-4.9.4.120-integration.jar         | None                                     |
	| LCHIJA | projectred-fabrication            | 4.9.4.120                | ProjectRed-1.12.2-4.9.4.120-fabrication.jar         | None                                     |
	| LCHIJA | projectred-illumination           | 4.9.4.120                | ProjectRed-1.12.2-4.9.4.120-lighting.jar            | None                                     |
	| LCHIJA | projectred-expansion              | 4.9.4.120                | ProjectRed-1.12.2-4.9.4.120-mechanical.jar          | None                                     |
	| LCHIJA | projectred-relocation             | 4.9.4.120                | ProjectRed-1.12.2-4.9.4.120-mechanical.jar          | None                                     |
	| LCHIJA | projectred-transportation         | 4.9.4.120                | ProjectRed-1.12.2-4.9.4.120-mechanical.jar          | None                                     |
	| LCHIJA | projectred-exploration            | 4.9.4.120                | ProjectRed-1.12.2-4.9.4.120-world.jar               | None                                     |
	| LCHIJA | quickleafdecay                    | 1.2.4                    | QuickLeafDecay-MC1.12.1-1.2.4.jar                   | None                                     |
	| LCHIJA | rangedpumps                       | 0.5                      | rangedpumps-0.5.jar                                 | None                                     |
	| LCHIJA | rebornstorage                     | 1.0.0                    | RebornStorage-1.12.2-3.3.4.85.jar                   | None                                     |
	| LCHIJA | redstonearsenal                   | 2.6.3                    | RedstoneArsenal-1.12.2-2.6.3.18-universal.jar       | 8a6abf2cb9e141b866580d369ba6548732eff25f |
	| LCHIJA | refinedstorageaddons              | 0.4.4                    | refinedstorageaddons-0.4.4.jar                      | None                                     |
	| LCHIJA | xreliquary                        | 1.12.2-1.3.4.796         | Reliquary-1.12.2-1.3.4.796.jar                      | None                                     |
	| LCHIJA | rftoolscontrol                    | 2.0.2                    | rftoolsctrl-1.12-2.0.2.jar                          | None                                     |
	| LCHIJA | rftoolspower                      | 1.2.0                    | rftoolspower-1.12-1.2.0.jar                         | None                                     |
	| LCHIJA | shadowmc                          | 3.8.0                    | ShadowMC-1.12-3.8.0.jar                             | None                                     |
	| LCHIJA | simplevoidworld                   | 1.2.0.9                  | Simple-Void-World-1.12-1.2.0.9-universal.jar        | None                                     |
	| LCHIJA | thermaldynamics                   | 2.5.5                    | ThermalDynamics-1.12.2-2.5.5.21-universal.jar       | 8a6abf2cb9e141b866580d369ba6548732eff25f |
	| LCHIJA | simplyjetpacks                    | 2.2.13.66                | SimplyJetpacks2-1.12.2-2.2.13.66.jar                | None                                     |
	| LCHIJA | snad                              | 1.12.1-1.7.09.16a        | Snad-1.12.1-1.7.09.16a.jar                          | None                                     |
	| LCHIJA | soulshardsrespawn                 | 1.12.2-1.1.1-13          | SoulShardsRespawn-1.12.2-1.1.1-13.jar               | None                                     |
	| LCHIJA | stevescarts                       | 2.4.31.135               | StevesCarts-1.12.2-2.4.31.135.jar                   | None                                     |
	| LCHIJA | storagedrawers                    | 1.12.2-5.4.0             | StorageDrawers-1.12.2-5.4.0.jar                     | None                                     |
	| LCHIJA | storagedrawersextra               | @VERSION@                | StorageDrawersExtras-1.12-3.1.0.jar                 | None                                     |
	| LCHIJA | tcinventoryscan                   | 2.0.10                   | ThaumicInventoryScanning_1.12.2-2.0.10.jar          | None                                     |
	| LCHIJA | thermalcultivation                | 0.3.3                    | ThermalCultivation-1.12.2-0.3.3.12-universal.jar    | 8a6abf2cb9e141b866580d369ba6548732eff25f |
	| LCHIJA | thermalinnovation                 | 0.3.3                    | ThermalInnovation-1.12.2-0.3.3.12-universal.jar     | 8a6abf2cb9e141b866580d369ba6548732eff25f |
	| LCHIJA | thutcore                          | 5.21.0                   | thutcore-1.12.2-5.21.0.jar                          | None                                     |
	| LCHIJA | thutcore_compat                   | 1.0                      | thutcore-1.12.2-5.21.0.jar                          | None                                     |
	| LCHIJA | thuttech                          | 6.1.6                    | thuttech-1.12.2-6.1.6.jar                           | None                                     |
	| LCHIJA | tinkertoolleveling                | 1.12.2-1.1.0.DEV.b23e769 | TinkerToolLeveling-1.12.2-1.1.0.jar                 | None                                     |
	| LCHIJA | topaddons                         | 1.12.2-1.11.0            | topaddons-1.12.2-1.11.0.jar                         | None                                     |
	| LCHIJA | torchmaster                       | 1.8.0.79                 | torchmaster_1.12.2-1.8.0.79.jar                     | 5e9a436b366831c8f54a7e80b015784da69278c6 |
	| LCHIJA | translocators                     | 2.5.2.81                 | Translocators-1.12.2-2.5.2.81-universal.jar         | f1850c39b2516232a2108a7bd84d1cb5df93b261 |
	| LCHIJA | universalmodifiers                | 1.12.2-1.0.16.1          | valkyrielib-1.12.2-2.0.20.1.jar                     | None                                     |
	| LCHIJA | wanionlib                         | 1.12.2-2.2               | WanionLib-1.12.2-2.2.jar                            | None                                     |
	| LCHIJA | waystones                         | 4.0.72                   | Waystones_1.12.2-4.0.72.jar                         | None                                     |
	| LCHIJA | wct                               | 3.12.93                  | WirelessCraftingTerminal-1.12.2-3.12.93.jar         | 186bc454cd122c9c2f1aa4f95611254bcc543363 |
	| LCHIJA | woot                              | 1.12.2-1.4.11            | woot-1.12.2-1.4.11.jar                              | None                                     |
	| LCHIJA | xnet                              | 1.8.2                    | xnet-1.12-1.8.2.jar                                 | None                                     |
	| LCHIJA | xtones                            | 1.12-1.0.8-11            | Xtones-1.12-1.0.8-11.jar                            | None                                     |
	| LCHIJA | yabba                             | 1.1.2.53                 | YABBA-1.1.2.53.jar                                  | None                                     |
	| LCHIJA | phosphor-lighting                 | 1.12.2-0.2.6             | phosphor-1.12.2-0.2.6+build50-universal.jar         | f0387d288626cc2d937daa504e74af570c52a2f1 |
	| LCHIJA | industrialwires                   | 1.7-36                   | IndustrialWires-1.7-36.jar                          | 7e11c175d1e24007afec7498a1616bef0000027d |
	| LCHIJA | eleccoreloader                    | 1.9.452                  | ElecCore-1.12.2-1.9.452.jar                         | None                                     |
	| LCHIJA | mysticallib                       | 1.12.2-1.3.6             | mysticallib-1.12.2-1.3.6.jar                        | None                                     |
	| LCHIJA | teslacorelib_registries           | 1.0.15                   | tesla-core-lib-1.12.2-1.0.15.jar                    | None                                     |
	| LCHIJA | unidict                           | 1.12.2-2.9.2             | UniDict-1.12.2-2.9.2.jar                            | None                                     |

	Loaded coremods (and transformers): 
RandomPatches (randompatches-1.12.2-1.18.1.1.jar)
  com.therandomlabs.randompatches.core.RPTransformer
SplashAnimationCoremod (SplashAnimation-0.2.1.jar)
  pl.asie.splashanimation.core.SplashProgressTransformer
BedPatch (bedpatch-2.2-1.12.2.jar)
  com.mordenkainen.bedpatch.BedPatchASM
Do not report to Forge! (If you haven't disabled the FoamFix coremod, try disabling it in the config! Note that this bit of text will still appear.) (foamfix-0.10.5-1.12.2.jar)
  pl.asie.foamfix.coremod.FoamFixTransformer
Quark Plugin (Quark-r1.6-177.jar)
  vazkii.quark.base.asm.ClassTransformer
OpenModsCorePlugin (OpenModsLib-1.12.2-0.12.2.jar)
  openmods.core.OpenModsClassTransformer
AstralCore (astralsorcery-1.12.2-1.10.20.jar)
  
CTMCorePlugin (CTM-MC1.12.2-0.3.3.22.jar)
  team.chisel.ctm.client.asm.CTMTransformer
p455w0rdc0re (p455w0rdslib-1.12.2-2.2.156.jar)
  p455w0rdslib.asm.ClassTransformer
ForgelinPlugin (Forgelin-1.8.3.jar)
  
Plugin (NotEnoughIDs-1.5.4.4.jar)
  ru.fewizz.neid.asm.Transformer
Inventory Tweaks Coremod (InventoryTweaks-1.63.jar)
  invtweaks.forge.asm.ContainerTransformer
ShetiPhian-ASM (ShetiPhian-ASM-1.12.0.jar)
  shetiphian.asm.ClassTransformer
PhosphorFMLLoadingPlugin (phosphor-1.12.2-0.2.6+build50-universal.jar)
  
LoadingPlugin (ResourceLoader-MC1.12.1-1.5.3.jar)
  lumien.resourceloader.asm.ClassTransformer
IELoadingPlugin (ImmersiveEngineering-core-0.12-91.jar)
  blusunrize.immersiveengineering.common.asm.IEClassTransformer
CoreMod (Aroma1997Core-1.12.2-2.0.0.2.jar)
  
EnderCorePlugin (EnderCore-1.12.2-0.5.68-core.jar)
  com.enderio.core.common.transform.EnderCoreTransformer
  com.enderio.core.common.transform.SimpleMixinPatcher
	OpenModsLib class transformers: [llama_null_fix:FINISHED],[horse_base_null_fix:FINISHED],[pre_world_render_hook:ENABLED],[player_render_hook:ENABLED],[horse_null_fix:FINISHED]
	AE2 Version: stable rv6-stable-7 for Forge 14.23.5.2768
	Pulsar/tconstruct loaded Pulses: 
		- TinkerCommons (Enabled/Forced)
		- TinkerWorld (Enabled/Not Forced)
		- TinkerTools (Enabled/Not Forced)
		- TinkerHarvestTools (Enabled/Forced)
		- TinkerMeleeWeapons (Enabled/Forced)
		- TinkerRangedWeapons (Enabled/Forced)
		- TinkerModifiers (Enabled/Forced)
		- TinkerSmeltery (Enabled/Not Forced)
		- TinkerGadgets (Enabled/Not Forced)
		- TinkerOredict (Enabled/Forced)
		- TinkerIntegration (Enabled/Forced)
		- TinkerFluids (Enabled/Forced)
		- TinkerMaterials (Enabled/Forced)
		- TinkerModelRegister (Enabled/Forced)
		- chiselIntegration (Enabled/Not Forced)
		- chiselsandbitsIntegration (Enabled/Not Forced)
		- theoneprobeIntegration (Enabled/Not Forced)

	Pulsar/natura loaded Pulses: 
		- NaturaCommons (Enabled/Forced)
		- NaturaOverworld (Enabled/Not Forced)
		- NaturaNether (Enabled/Not Forced)
		- NaturaDecorative (Enabled/Not Forced)
		- NaturaTools (Enabled/Not Forced)
		- NaturaEntities (Enabled/Not Forced)
		- NaturaOredict (Enabled/Forced)
		- NaturaWorld (Enabled/Not Forced)

	List of loaded APIs: 
		* actuallyadditionsapi (34) from ActuallyAdditions-1.12.2-r150.jar
		* ae2wtlib|API (1.0.30) from AE2WTLib-1.12.2-1.0.30.jar
		* appliedenergistics2|API (rv6) from appliedenergistics2-rv6-stable-7.jar
		* Base|API (1.0.0) from base-1.12.2-3.13.0.jar
		* Baubles|API (1.4.0.2) from Baubles-1.12-1.5.2.jar
		* betteradvancements|API (0.1.0.77) from BetterAdvancements-1.12.2-0.1.0.77.jar
		* BetterWithModsAPI (Beta 0.6) from AppleSkin-mc1.12-1.0.9.jar
		* bigreactors|API (4.0.1) from ExtremeReactors-1.12.2-0.4.5.67.jar
		* bloodmagic-api (2.0.0) from BloodMagic-1.12.2-2.4.1-103.jar
		* BotaniaAPI (79) from AkashicTome-1.2-12.jar
		* buildcraftapi_blocks (1.0) from buildcraft-all-7.99.24.2.jar
		* buildcraftapi_boards (2.0) from buildcraft-all-7.99.24.2.jar
		* buildcraftapi_core (2.2) from buildcraft-all-7.99.24.2.jar
		* buildcraftapi_crops (1.1) from buildcraft-all-7.99.24.2.jar
		* buildcraftapi_enums (1.0) from buildcraft-all-7.99.24.2.jar
		* buildcraftapi_events (2.0) from buildcraft-all-7.99.24.2.jar
		* buildcraftapi_facades (1.1) from buildcraft-all-7.99.24.2.jar
		* buildcraftapi_filler (5.0) from buildcraft-all-7.99.24.2.jar
		* buildcraftapi_fuels (2.0) from buildcraft-all-7.99.24.2.jar
		* buildcraftapi_gates (4.1) from buildcraft-all-7.99.24.2.jar
		* buildcraftapi_items (1.1) from buildcraft-all-7.99.24.2.jar
		* buildcraftapi_library (2.0) from buildcraft-all-7.99.24.2.jar
		* buildcraftapi_lists (1.0) from buildcraft-all-7.99.24.2.jar
		* buildcraftapi_power (1.3) from buildcraft-all-7.99.24.2.jar
		* buildcraftapi_recipes (3.0) from buildcraft-all-7.99.24.2.jar
		* buildcraftapi_robotics (3.0) from buildcraft-all-7.99.24.2.jar
		* buildcraftapi_statements (1.1) from buildcraft-all-7.99.24.2.jar
		* buildcraftapi_tiles (1.2) from buildcraft-all-7.99.24.2.jar
		* buildcraftapi_tools (1.0) from buildcraft-all-7.99.24.2.jar
		* buildcraftapi_transport (5.0) from buildcraft-all-7.99.24.2.jar
		* chesttransporter|api (2) from ChestTransporter-1.12.2-2.8.8.jar
		* Chisel-API (0.0.1) from Chisel-MC1.12.2-0.2.1.35.jar
		* ChiselAPI|Carving (0.0.1) from Chisel-MC1.12.2-0.2.1.35.jar
		* ChiselsAndBitsAPI (14.25.0) from chiselsandbits-14.33.jar
		* cofhapi (2.5.0) from CoFHCore-1.12.2-4.6.3.27-universal.jar
		* ComputerCraft|API (1.84.0) from cc-tweaked-1.12.2-1.84.0.jar
		* ComputerCraft|API|FileSystem (1.84.0) from cc-tweaked-1.12.2-1.84.0.jar
		* ComputerCraft|API|Lua (1.84.0) from cc-tweaked-1.12.2-1.84.0.jar
		* ComputerCraft|API|Media (1.84.0) from cc-tweaked-1.12.2-1.84.0.jar
		* ComputerCraft|API|Network (1.84.0) from cc-tweaked-1.12.2-1.84.0.jar
		* ComputerCraft|API|Network|Wired (1.84.0) from cc-tweaked-1.12.2-1.84.0.jar
		* ComputerCraft|API|Peripheral (1.84.0) from cc-tweaked-1.12.2-1.84.0.jar
		* ComputerCraft|API|Permissions (1.84.0) from cc-tweaked-1.12.2-1.84.0.jar
		* ComputerCraft|API|Redstone (1.84.0) from cc-tweaked-1.12.2-1.84.0.jar
		* ComputerCraft|API|Turtle (1.84.0) from cc-tweaked-1.12.2-1.84.0.jar
		* ComputerCraft|API|Turtle|Event (1.84.0) from cc-tweaked-1.12.2-1.84.0.jar
		* ctm-api (0.1.0) from CTM-MC1.12.2-0.3.3.22.jar
		* ctm-api-events (0.1.0) from CTM-MC1.12.2-0.3.3.22.jar
		* ctm-api-models (0.1.0) from CTM-MC1.12.2-0.3.3.22.jar
		* ctm-api-textures (0.1.0) from CTM-MC1.12.2-0.3.3.22.jar
		* ctm-api-utils (0.1.0) from CTM-MC1.12.2-0.3.3.22.jar
		* DR-API (1.0.4-Beta) from deepresonance-1.12-1.8.0.jar
		* DraconicEvolution|API (1.3) from Draconic-Evolution-1.12.2-2.3.24.349-universal.jar
		* ElecCoreAPI (1.0.0) from ElecCore-1.12.2-1.9.452.jar
		* enderioapi (4.0.0) from EnderIO-1.12.2-5.1.51.jar
		* enderioapi|addon (4.0.0) from EnderIO-1.12.2-5.1.51.jar
		* enderioapi|capacitor (4.0.0) from EnderIO-1.12.2-5.1.51.jar
		* enderioapi|conduits (4.0.0) from EnderIO-1.12.2-5.1.51.jar
		* enderioapi|farm (4.0.0) from EnderIO-1.12.2-5.1.51.jar
		* enderioapi|redstone (4.0.0) from EnderIO-1.12.2-5.1.51.jar
		* enderioapi|teleport (4.0.0) from EnderIO-1.12.2-5.1.51.jar
		* enderioapi|tools (4.0.0) from EnderIO-1.12.2-5.1.51.jar
		* enderioapi|upgrades (4.0.0) from EnderIO-1.12.2-5.1.51.jar
		* fluxapi (1.0) from fluxnetworks-1.12.2-3.0.19-21.jar
		* ForestryAPI|apiculture (5.0.0) from forestry_1.12.2-5.8.2.394.jar
		* ForestryAPI|arboriculture (4.3.0) from forestry_1.12.2-5.8.2.394.jar
		* ForestryAPI|book (5.8.1) from forestry_1.12.2-5.8.2.394.jar
		* ForestryAPI|circuits (3.1.0) from forestry_1.12.2-5.8.2.394.jar
		* ForestryAPI|climate (5.0.0) from forestry_1.12.2-5.8.2.394.jar
		* ForestryAPI|core (5.7.0) from forestry_1.12.2-5.8.2.394.jar
		* ForestryAPI|farming (5.8.0) from forestry_1.12.2-5.8.2.394.jar
		* ForestryAPI|food (1.1.0) from forestry_1.12.2-5.8.2.394.jar
		* ForestryAPI|fuels (3.0.0) from forestry_1.12.2-5.8.2.394.jar
		* ForestryAPI|genetics (5.7.0) from forestry_1.12.2-5.8.2.394.jar
		* ForestryAPI|gui (5.8.0) from forestry_1.12.2-5.8.2.394.jar
		* ForestryAPI|hives (4.1.0) from forestry_1.12.2-5.8.2.394.jar
		* ForestryAPI|lepidopterology (1.4.0) from forestry_1.12.2-5.8.2.394.jar
		* ForestryAPI|mail (3.1.0) from forestry_1.12.2-5.8.2.394.jar
		* ForestryAPI|modules (5.7.0) from forestry_1.12.2-5.8.2.394.jar
		* ForestryAPI|multiblock (3.0.0) from forestry_1.12.2-5.8.2.394.jar
		* ForestryAPI|recipes (5.4.0) from forestry_1.12.2-5.8.2.394.jar
		* ForestryAPI|storage (5.0.0) from forestry_1.12.2-5.8.2.394.jar
		* ForestryAPI|world (2.1.0) from forestry_1.12.2-5.8.2.394.jar
		* gendustryAPI (2.3.0) from gendustry-1.6.5.8-mc1.12.2.jar
		* Guide-API|API (2.0.0) from Guide-API-1.12-2.1.8-63.jar
		* ImmersiveEngineering|API (1.0) from ImmersiveEngineering-0.12-91.jar
		* ImmersiveEngineering|ImmersiveFluxAPI (1.0) from ImmersiveEngineering-0.12-91.jar
		* industrialforegoingapi (5) from industrialforegoing-1.12.2-1.12.13-237.jar
		* jeresources|API (0.9.2.60) from JustEnoughResources-1.12.2-0.9.2.60.jar
		* journeymap|client-api (1.4) from journeymap-1.12.2-5.5.5.jar
		* journeymap|client-api-display (1.4) from journeymap-1.12.2-5.5.5.jar
		* journeymap|client-api-event (1.4) from journeymap-1.12.2-5.5.5.jar
		* journeymap|client-api-model (1.4) from journeymap-1.12.2-5.5.5.jar
		* journeymap|client-api-util (1.4) from journeymap-1.12.2-5.5.5.jar
		* JustEnoughItemsAPI (4.13.0) from jei_1.12.2-4.15.0.268.jar
		* modtogether|api (1.0) from minetogether-1.10.2-2.2.0-RC6.jar
		* MouseTweaks|API (1.0) from MouseTweaks-2.10-mc1.12.2.jar
		* openblocks|api (1.2) from OpenBlocks-1.12.2-1.8.1.jar
		* PatchouliAPI (6) from Patchouli-1.0-20.jar
		* projectred|api (2.1) from ProjectRed-1.12.2-4.9.4.120-Base.jar
		* QuarkAPI (4) from Quark-r1.6-177.jar
		* railcraft:api_carts (3.0.0) from railcraft-12.0.0.jar
		* railcraft:api_charge (4.0.0) from railcraft-12.0.0.jar
		* railcraft:api_core (3.2.0) from railcraft-12.0.0.jar
		* railcraft:api_crafting (4.0.0) from railcraft-12.0.0.jar
		* railcraft:api_events (2.0.0) from railcraft-12.0.0.jar
		* railcraft:api_fuel (2.0.0) from railcraft-12.0.0.jar
		* railcraft:api_helpers (2.0.0) from railcraft-12.0.0.jar
		* railcraft:api_items (2.4.0) from railcraft-12.0.0.jar
		* railcraft:api_signals (4.0.0) from railcraft-12.0.0.jar
		* railcraft:api_tracks (5.1.1) from railcraft-12.0.0.jar
		* reborncoreAPI (3.16.0.469) from RebornCore-1.12.2-3.16.0.469-universal.jar
		* reborncoreAPI|Power (3.16.0.469) from RebornCore-1.12.2-3.16.0.469-universal.jar
		* reborncoreAPI|Praescriptum (3.16.0.469) from RebornCore-1.12.2-3.16.0.469-universal.jar
		* reborncoreAPI|Recipe (3.16.0.469) from RebornCore-1.12.2-3.16.0.469-universal.jar
		* reborncoreAPI|Tile (3.16.0.469) from RebornCore-1.12.2-3.16.0.469-universal.jar
		* redstonefluxapi (2.1.0) from RedstoneFlux-1.12-2.1.0.6-universal.jar
		* sonarapi (1.0.1) from sonarcore-1.12.2-5.0.19-20.jar
		* stevescartsAPI (${version}) from StevesCarts-1.12.2-2.4.31.135.jar
		* stevescartsAPI|FARMS (${version}) from StevesCarts-1.12.2-2.4.31.135.jar
		* StorageDrawersAPI (2.1.0) from StorageDrawers-1.12.2-5.4.0.jar
		* StorageDrawersAPI|event (2.1.0) from StorageDrawers-1.12.2-5.4.0.jar
		* StorageDrawersAPI|registry (2.1.0) from StorageDrawers-1.12.2-5.4.0.jar
		* StorageDrawersAPI|render (2.1.0) from StorageDrawers-1.12.2-5.4.0.jar
		* StorageDrawersAPI|storage (2.1.0) from StorageDrawers-1.12.2-5.4.0.jar
		* StorageDrawersAPI|storage-attribute (2.1.0) from StorageDrawers-1.12.2-5.4.0.jar
		* Thaumcraft|API (6.0.2) from Thaumcraft-1.12.2-6.1.BETA26.jar
		* theoneprobe_api (1.4.4) from theoneprobe-1.12-1.4.28.jar
		* thut|API (1.0.0) from thutcore-1.12.2-5.21.0.jar
		* valkyrielib.api (1.12.2-2.0.10a) from valkyrielib-1.12.2-2.0.20.1.jar
		* wct|api (1.1) from WirelessCraftingTerminal-1.12.2-3.12.93.jar
		* zerocore|API|multiblock (1.10.2-0.0.2) from zerocore-1.12.2-0.1.2.8.jar
		* zerocore|API|multiblock|rectangular (1.10.2-0.0.2) from zerocore-1.12.2-0.1.2.8.jar
		* zerocore|API|multiblock|tier (1.10.2-0.0.2) from zerocore-1.12.2-0.1.2.8.jar
		* zerocore|API|multiblock|validation (1.10.2-0.0.2) from zerocore-1.12.2-0.1.2.8.jar
	RebornCore: 
		Plugin Engine: 0
		RebornCore Version: 3.16.0.469
		Runtime Debofucsation 1
	Ender IO: Found the following problem(s) with your installation (That does NOT mean that Ender IO caused the crash or was involved in it in any way. We add this information to help finding common problems, not as an invitation to post any crash you encounter to Ender IO's issue tracker. Always check the stack trace above to see which mod is most likely failing.):
                  * Offline mode for dedicated servers is NOT supported by Ender IO.
                 This may (look up the meaning of 'may' in the dictionary if you're not sure what it means) have caused the error. Try reproducing the crash WITHOUT this/these mod(s) before reporting it.

	!!!!!!!!!!!!!!!!!!!!!!!!!!!!!!!!!!!!!!!!!!!!!!!!!!!!!!!!!!!!!!!!!!!!!!!!!!!!!!
	!!!You are looking at the diagnostics information, not at the crash.       !!!
	!!!Scroll up until you see the line with '---- Minecraft Crash Report ----'!!!
	!!!!!!!!!!!!!!!!!!!!!!!!!!!!!!!!!!!!!!!!!!!!!!!!!!!!!!!!!!!!!!!!!!!!!!!!!!!!!!

	AE2 Integration: IC2:ON, RC:ON, MFR:OFF, Waila:OFF, Mekanism:OFF, OpenComputers:OFF, THE_ONE_PROBE:ON, TESLA:OFF, CRAFTTWEAKER:ON
	Profiler Position: N/A (disabled)
	Player Count: 2 / 20; [EntityPlayerMP['tychojoran'/71, l='world', x=257.15, y=40.00, z=38.70], EntityPlayerMP['debotten'/9943, l='world', x=195.50, y=64.00, z=69.50]]
	Is Modded: Definitely; Server brand changed to 'fml,forge'
	Type: Dedicated Server (map_server.txt)